\BOOKMARK [0][-]{chapter.1}{Pr\351sentation}{}
\BOOKMARK [1][-]{section.1.1}{Description}{chapter.1}
\BOOKMARK [1][-]{section.1.2}{Portabilit\351}{chapter.1}
\BOOKMARK [1][-]{section.1.3}{Licence}{chapter.1}
\BOOKMARK [1][-]{section.1.4}{Diff\351rences avec Numerix-0.21}{chapter.1}
\BOOKMARK [0][-]{chapter.2}{Utilisation avec Ocaml}{}
\BOOKMARK [1][-]{section.2.1}{Interface}{chapter.2}
\BOOKMARK [1][-]{section.2.2}{La signature Int\137type}{chapter.2}
\BOOKMARK [1][-]{section.2.3}{Les foncteurs utilisant la signature Int\137type}{chapter.2}
\BOOKMARK [1][-]{section.2.4}{Utilisation}{chapter.2}
\BOOKMARK [0][-]{chapter.3}{Utilisation avec Camllight}{}
\BOOKMARK [1][-]{section.3.1}{Interface}{chapter.3}
\BOOKMARK [1][-]{section.3.2}{Utilisation}{chapter.3}
\BOOKMARK [0][-]{chapter.4}{Utilisation en C}{}
\BOOKMARK [1][-]{section.4.1}{Interface}{chapter.4}
\BOOKMARK [1][-]{section.4.2}{Utilisation}{chapter.4}
\BOOKMARK [0][-]{chapter.5}{Utilisation en Pascal}{}
\BOOKMARK [1][-]{section.5.1}{Interface}{chapter.5}
\BOOKMARK [1][-]{section.5.2}{Utilisation}{chapter.5}
\BOOKMARK [0][-]{chapter.6}{Installation}{}
\BOOKMARK [1][-]{section.6.1}{T\351l\351chargement}{chapter.6}
\BOOKMARK [1][-]{section.6.2}{Configuration}{chapter.6}
\BOOKMARK [1][-]{section.6.3}{Compilation}{chapter.6}
\BOOKMARK [1][-]{section.6.4}{Description des exemples}{chapter.6}
