\select@language {french}
\contentsline {chapter}{\numberline {1}Pr\'esentation}{2}{chapter.1}
\contentsline {section}{\numberline {1.1}Description}{2}{section.1.1}
\contentsline {section}{\numberline {1.2}Portabilit\'e}{3}{section.1.2}
\contentsline {section}{\numberline {1.3}Licence}{3}{section.1.3}
\contentsline {section}{\numberline {1.4}Diff\'erences avec Numerix-0.21}{4}{section.1.4}
\contentsline {chapter}{\numberline {2}Utilisation avec Ocaml}{5}{chapter.2}
\contentsline {section}{\numberline {2.1}Interface}{5}{section.2.1}
\contentsline {section}{\numberline {2.2}La signature Int\_type}{14}{section.2.2}
\contentsline {subsection}{\numberline {2.2.1}Entiers et r\'ef\'erences}{14}{subsection.2.2.1}
\contentsline {subsection}{\numberline {2.2.2}Diff\'erentes versions d'une m\^eme op\'eration}{15}{subsection.2.2.2}
\contentsline {subsection}{\numberline {2.2.3}Mode d'arrondi}{16}{subsection.2.2.3}
\contentsline {subsection}{\numberline {2.2.4}Op\'erations arithm\'etiques}{16}{subsection.2.2.4}
\contentsline {subsection}{\numberline {2.2.5}Primalit\'e}{17}{subsection.2.2.5}
\contentsline {subsection}{\numberline {2.2.6}Comparaisons}{18}{subsection.2.2.6}
\contentsline {subsection}{\numberline {2.2.7}Conversions}{18}{subsection.2.2.7}
\contentsline {subsection}{\numberline {2.2.8}Nombres pseudo-al\'eatoires}{19}{subsection.2.2.8}
\contentsline {subsection}{\numberline {2.2.9}Acc\`es \`a la repr\'esentation binaire}{19}{subsection.2.2.9}
\contentsline {subsection}{\numberline {2.2.10}Hachage, s\'erialisation et d\'es\'erialisation}{20}{subsection.2.2.10}
\contentsline {subsection}{\numberline {2.2.11}Erreurs}{20}{subsection.2.2.11}
\contentsline {section}{\numberline {2.3}Les foncteurs utilisant la signature Int\_type}{21}{section.2.3}
\contentsline {subsection}{\numberline {2.3.1}Symboles infixes}{21}{subsection.2.3.1}
\contentsline {subsection}{\numberline {2.3.2}Comparaison entre deux modules}{21}{subsection.2.3.2}
\contentsline {subsection}{\numberline {2.3.3}Statistiques}{22}{subsection.2.3.3}
\contentsline {subsection}{\numberline {2.3.4}Approximations des fonctions usuelles}{23}{subsection.2.3.4}
\contentsline {subsection}{\numberline {2.3.5}S\'election d'un module \`a l'ex\'ecution}{26}{subsection.2.3.5}
\contentsline {subsection}{\numberline {2.3.6}Chronom\'etrage}{26}{subsection.2.3.6}
\contentsline {section}{\numberline {2.4}Utilisation}{27}{section.2.4}
\contentsline {subsection}{\numberline {2.4.1}Compilation}{27}{subsection.2.4.1}
\contentsline {subsection}{\numberline {2.4.2}Exemple}{27}{subsection.2.4.2}
\contentsline {subsection}{\numberline {2.4.3}Syst\`eme interactif}{28}{subsection.2.4.3}
\contentsline {chapter}{\numberline {3}Utilisation avec Camllight}{30}{chapter.3}
\contentsline {section}{\numberline {3.1}Interface}{30}{section.3.1}
\contentsline {subsection}{\numberline {3.1.1}Modules}{30}{subsection.3.1.1}
\contentsline {subsection}{\numberline {3.1.2}Fonctions}{31}{subsection.3.1.2}
\contentsline {section}{\numberline {3.2}Utilisation}{31}{section.3.2}
\contentsline {subsection}{\numberline {3.2.1}Compilation}{31}{subsection.3.2.1}
\contentsline {subsection}{\numberline {3.2.2}Exemple}{31}{subsection.3.2.2}
\contentsline {subsection}{\numberline {3.2.3}Syst\`eme interactif}{32}{subsection.3.2.3}
\contentsline {chapter}{\numberline {4}Utilisation en C}{34}{chapter.4}
\contentsline {section}{\numberline {4.1}Interface}{34}{section.4.1}
\contentsline {subsection}{\numberline {4.1.1}Conventions}{34}{subsection.4.1.1}
\contentsline {subsection}{\numberline {4.1.2}Le fichier {\tt numerix.h}}{35}{subsection.4.1.2}
\contentsline {subsection}{\numberline {4.1.3}Gestion de la m\'emoire}{39}{subsection.4.1.3}
\contentsline {subsection}{\numberline {4.1.4}Mode d'arrondi}{40}{subsection.4.1.4}
\contentsline {subsection}{\numberline {4.1.5}Description des fonctions}{40}{subsection.4.1.5}
\contentsline {section}{\numberline {4.2}Utilisation}{41}{section.4.2}
\contentsline {subsection}{\numberline {4.2.1}Compilation}{41}{subsection.4.2.1}
\contentsline {subsection}{\numberline {4.2.2}Exemple}{41}{subsection.4.2.2}
\contentsline {chapter}{\numberline {5}Utilisation en Pascal}{43}{chapter.5}
\contentsline {section}{\numberline {5.1}Interface}{43}{section.5.1}
\contentsline {subsection}{\numberline {5.1.1}Unit\'es}{43}{subsection.5.1.1}
\contentsline {subsection}{\numberline {5.1.2}Gestion de la m\'emoire}{47}{subsection.5.1.2}
\contentsline {subsection}{\numberline {5.1.3}Mode d'arrondi}{48}{subsection.5.1.3}
\contentsline {subsection}{\numberline {5.1.4}Description des fonctions}{48}{subsection.5.1.4}
\contentsline {subsection}{\numberline {5.1.5}Cha\^\i nes de caract\`eres}{49}{subsection.5.1.5}
\contentsline {section}{\numberline {5.2}Utilisation}{50}{section.5.2}
\contentsline {subsection}{\numberline {5.2.1}Compilation}{50}{subsection.5.2.1}
\contentsline {subsection}{\numberline {5.2.2}Exemple}{50}{subsection.5.2.2}
\contentsline {chapter}{\numberline {6}Installation}{52}{chapter.6}
\contentsline {section}{\numberline {6.1}T\'el\'echargement}{52}{section.6.1}
\contentsline {section}{\numberline {6.2}Configuration}{53}{section.6.2}
\contentsline {subsection}{\numberline {6.2.1}Configuration automatique}{53}{subsection.6.2.1}
\contentsline {subsection}{\numberline {6.2.2}Configuration manuelle}{55}{subsection.6.2.2}
\contentsline {subsection}{\numberline {6.2.3}\'Edition du fichier {\tt Makefile}}{55}{subsection.6.2.3}
\contentsline {subsection}{\numberline {6.2.4}\'Edition du fichier {\tt kernel/config.h}}{58}{subsection.6.2.4}
\contentsline {section}{\numberline {6.3}Compilation}{58}{section.6.3}
\contentsline {section}{\numberline {6.4}Description des exemples}{59}{section.6.4}
\contentsline {subsection}{\numberline {6.4.1}chrono}{59}{subsection.6.4.1}
\contentsline {subsection}{\numberline {6.4.2}digits}{61}{subsection.6.4.2}
\contentsline {subsection}{\numberline {6.4.3}pi}{62}{subsection.6.4.3}
\contentsline {subsection}{\numberline {6.4.4}shanks}{63}{subsection.6.4.4}
\contentsline {subsection}{\numberline {6.4.5}simple}{63}{subsection.6.4.5}
\contentsline {subsection}{\numberline {6.4.6}sqrt-163}{63}{subsection.6.4.6}
\contentsline {subsection}{\numberline {6.4.7}prime-test}{63}{subsection.6.4.7}
\contentsline {subsection}{\numberline {6.4.8}cmp, rcheck}{65}{subsection.6.4.8}
